CHACHA/chacha1/chacha1.sim/sim_1/behav/xsim/simulate.log
Vivado Simulator 2018.3
Time resolution is 1 ps
   -- Testbench for chacha started --
State at init after reset:

Top internal state
------------------
init_reg   = 0
next_reg   = 0
rounds_reg = 0

key0_reg = 00000000, key1_reg  = 00000000, key2_reg = 00000000, key3_reg  = 00000000
key4_reg = 00000000, key5_reg  = 00000000, key6_reg = 00000000, key7_reg  = 00000000

iv0_reg = 00000000, iv1_reg = 00000000,iv2_reg = 00000000

data_in0_reg  = 00000000, data_in1_reg   = 00000000, data_in2_reg  = 00000000, data_in3_reg   = 00000000
data_in4_reg  = 00000000, data_in5_reg   = 00000000, data_in6_reg  = 00000000, data_in7_reg   = 00000000
data_in8_reg  = 00000000, data_in9_reg   = 00000000, data_in10_reg = 00000000, data_in11_reg  = 00000000
data_in12_reg = 00000000, data_in13_reg  = 00000000, data_in14_reg = 00000000, data_in15_reg  = 00000000

ready = 0x1, data_out_valid = 0
data_out00 = 00000000, data_out01 = 00000000, data_out02 = 00000000, data_out03 = 00000000
data_out04 = 00000000, data_out05 = 00000000, data_out06 = 00000000, data_out07 = 00000000
data_out08 = 00000000, data_out09 = 00000000, data_out10 = 00000000, data_out11 = 00000000
data_out12 = 00000000, data_out13 = 00000000, data_out14 = 00000000, data_out15 = 00000000

 
TC1-: Given key 256 bits and Nonce. 96 bits, 20 rounds.
***----------***
Count = 0
***----------***
*** Started.
*** Ready seen.

Top internal state
------------------
init_reg   = 0
next_reg   = 0
rounds_reg = 14

key0_reg = 00010203, key1_reg  = 04050607, key2_reg = 08090a0b, key3_reg  = 0c0d0e0f
key4_reg = 10111213, key5_reg  = 14151617, key6_reg = 18191a1b, key7_reg  = 1c1d1e1f

iv0_reg = 00000009, iv1_reg = 0000004a,iv2_reg = 00000000

data_in0_reg  = 00000000, data_in1_reg   = 00000000, data_in2_reg  = 00000000, data_in3_reg   = 00000000
data_in4_reg  = 00000000, data_in5_reg   = 00000000, data_in6_reg  = c55f62b8, data_in7_reg   = 83c4ea1b
data_in8_reg  = d0c3fbf4, data_in9_reg   = d219b005, data_in10_reg = 6487594f, data_in11_reg  = 1eea9623
data_in12_reg = 9eb7412b, data_in13_reg  = bde54661, data_in14_reg = a0e82549, data_in15_reg  = 78f22032

ready = 0x1, data_out_valid = 1
data_out00 = 47824a06, data_out01 = cff11fed, data_out02 = 6e972264, data_out03 = 9f1fa12a
data_out04 = 1c692e2b, data_out05 = 351d9d77, data_out06 = 0bc0bb0b, data_out07 = c0b90bb0
data_out08 = ba0ba0b6, data_out09 = 0b80b50b, data_out10 = 80b50b80, data_out11 = b50b70b6
data_out12 = 0b60b40b, data_out13 = 70b30b60, data_out14 = bf0c90cb, data_out15 = 0d10e70e

Final Output:
0x47824a06cff11fed6e9722649f1fa12a1c692e2b351d9d770bc0bb0bc0b90bb0ba0ba0b60b80b50b80b50b80b50b70b60b60b40b70b30b60bf0c90cb0d10e70e

***----------***
Count = 1
***----------***
*** Started.
*** Ready seen.

Top internal state
------------------
init_reg   = 0
next_reg   = 0
rounds_reg = 14

key0_reg = 00010203, key1_reg  = 04050607, key2_reg = 08090a0b, key3_reg  = 0c0d0e0f
key4_reg = 10111213, key5_reg  = 14151617, key6_reg = 18191a1b, key7_reg  = 1c1d1e1f

iv0_reg = 00000009, iv1_reg = 0000004a,iv2_reg = 00000000

data_in0_reg  = 07534696, data_in1_reg   = 0ffa6f4d, data_in2_reg  = 6487826e, data_in3_reg   = 9f87abcb
data_in4_reg  = 1073dfc5, data_in5_reg   = 3f8dbe72, data_in6_reg  = ee1dd323, data_in7_reg   = e5772102
data_in8_reg  = 61d8f449, data_in9_reg   = b92c0ebe, data_in10_reg = 593e0208, data_in11_reg  = a7113798
data_in12_reg = 3509fb40, data_in13_reg  = 21595df4, data_in14_reg = 1084418d, data_in15_reg  = 0514c83c

ready = 0x1, data_out_valid = 1
data_out00 = 40d10c90, data_out01 = c00b70a0, data_out02 = 0a10a00a, data_out03 = 00980ae1
data_out04 = 0c1af1ee, data_out05 = 0a902305, data_out06 = 20820a90, data_out07 = a60ac0a9
data_out08 = 0b10af0b, data_out09 = 60b50bb0, data_out10 = bd0c50c7, data_out11 = 0cf0d10d
data_out12 = a0de0e60, data_out13 = ec0f10f5, data_out14 = 0f60f40f, data_out15 = 70f60f00

Final Output:
0x40d10c90c00b70a00a10a00a00980ae10c1af1ee0a90230520820a90a60ac0a90b10af0b60b50bb0bd0c50c70cf0d10da0de0e60ec0f10f50f60f40f70f60f00

***----------***
Count = 2
***----------***
*** Started.
*** Ready seen.

Top internal state
------------------
init_reg   = 0
next_reg   = 0
rounds_reg = 14

key0_reg = 00010203, key1_reg  = 04050607, key2_reg = 08090a0b, key3_reg  = 0c0d0e0f
key4_reg = 10111213, key5_reg  = 14151617, key6_reg = 18191a1b, key7_reg  = 1c1d1e1f

iv0_reg = 00000009, iv1_reg = 0000004a,iv2_reg = 00000000

data_in0_reg  = ad8c4ad1, data_in1_reg   = c2f1d3e1, data_in2_reg  = fe502e14, data_in3_reg   = 5913f1ec
data_in4_reg  = 10e9e927, data_in5_reg   = 75d99127, data_in6_reg  = 0d93c90c, data_in7_reg   = 488d5da0
data_in8_reg  = da725092, data_in9_reg   = 659285b7, data_in10_reg = ef52e9c4, data_in11_reg  = 3b59ed15
data_in12_reg = 22dc9599, data_in13_reg  = c626f80a, data_in14_reg = 2f52bed2, data_in15_reg  = cfe937f5

ready = 0x1, data_out_valid = 1
data_out00 = ea0e00d7, data_out01 = 0d00cc0c, data_out02 = 90c70c70, data_out03 = c60c50c6
data_out04 = 0c80c70c, data_out05 = 40c40c50, data_out06 = c30c10bf, data_out07 = 0bf0bc0b
data_out08 = b0ba0bd0, data_out09 = bc0b80b9, data_out10 = 0b60bb0b, data_out11 = 90b80b80
data_out12 = b70b60b9, data_out13 = 0b70b50b, data_out14 = 30b60b50, data_out15 = ba0bf0c9

Final Output:
0xea0e00d70d00cc0c90c70c70c60c50c60c80c70c40c40c50c30c10bf0bf0bc0bb0ba0bd0bc0b80b90b60bb0b90b80b80b70b60b90b70b50b30b60b50ba0bf0c9

***----------***
Count = 3
***----------***
*** Started.
*** Ready seen.

Top internal state
------------------
init_reg   = 0
next_reg   = 0
rounds_reg = 14

key0_reg = 00010203, key1_reg  = 04050607, key2_reg = 08090a0b, key3_reg  = 0c0d0e0f
key4_reg = 10111213, key5_reg  = 14151617, key6_reg = 18191a1b, key7_reg  = 1c1d1e1f

iv0_reg = 00000009, iv1_reg = 0000004a,iv2_reg = 00000000

data_in0_reg  = 4b629c08, data_in1_reg   = 3f1412cd, data_in2_reg  = ab9b12d5, data_in3_reg   = 955f0320
data_in4_reg  = 2cca27fb, data_in5_reg   = ff0e2cc2, data_in6_reg  = d61f71b0, data_in7_reg   = 0335e98b
data_in8_reg  = cfc2ebe8, data_in9_reg   = d329b605, data_in10_reg = e48459bf, data_in11_reg  = 11ede651
data_in12_reg = 9947392d, data_in13_reg  = dd8e40f1, data_in14_reg = fbea2570, data_in15_reg  = 7b023333

ready = 0x1, data_out_valid = 1
data_out00 = 0ce0d60e, data_out01 = f0e50d20, data_out02 = c50c30b1, data_out03 = 0a40a20a
data_out04 = 30a309d0, data_out05 = ca13b1b5, data_out06 = 1880a803, data_out07 = 40480820
data_out08 = a50ab0aa, data_out09 = 0ab0b30b, data_out10 = 00b60b70, data_out11 = ba0c00c4
data_out12 = 0c90cc0d, data_out13 = 10d80df0, data_out14 = e40e90f2, data_out15 = 0ee0f40f

Final Output:
0xce0d60ef0e50d20c50c30b10a40a20a30a309d0ca13b1b51880a80340480820a50ab0aa0ab0b30b00b60b70ba0c00c40c90cc0d10d80df0e40e90f20ee0f40f

***----------***
Count = 4
***----------***
*** Started.
*** Ready seen.

Top internal state
------------------
init_reg   = 0
next_reg   = 0
rounds_reg = 14

key0_reg = 00010203, key1_reg  = 04050607, key2_reg = 08090a0b, key3_reg  = 0c0d0e0f
key4_reg = 10111213, key5_reg  = 14151617, key6_reg = 18191a1b, key7_reg  = 1c1d1e1f

iv0_reg = 00000009, iv1_reg = 0000004a,iv2_reg = 00000000

data_in0_reg  = 67714536, data_in1_reg   = 27ff2f31, data_in2_reg  = 63b7ed68, data_in3_reg   = efd6ad5a
data_in4_reg  = d9656eed, data_in5_reg   = 399d597b, data_in6_reg  = be5fd5a3, data_in7_reg   = fd71e116
data_in8_reg  = 6158e549, data_in9_reg   = 492f0e8e, data_in10_reg = 5239d276, data_in11_reg  = a091519e
data_in12_reg = c562fe10, data_in13_reg  = 755d5db5, data_in14_reg = 14b40189, data_in15_reg  = e525cb9c

ready = 0x1, data_out_valid = 1
data_out00 = 20f30f30, data_out01 = e80e30dc, data_out02 = 0d20cf0c, data_out03 = 70c90c70
data_out04 = c50c40c6, data_out05 = 0c80c40c, data_out06 = 70c00c10, data_out07 = be0c00bd
data_out08 = 0b90be0b, data_out09 = 90b60b80, data_out10 = b60b80b9, data_out11 = 0b70b70b
data_out12 = 50b50b30, data_out13 = b80b10b4, data_out14 = 0b50b40b, data_out15 = 90c70ca0

Final Output:
0x20f30f30e80e30dc0d20cf0c70c90c70c50c40c60c80c40c70c00c10be0c00bd0b90be0b90b60b80b60b80b90b70b70b50b50b30b80b10b40b50b40b90c70ca0

***----------***
Count = 5
***----------***
*** Started.
*** Ready seen.

Top internal state
------------------
init_reg   = 0
next_reg   = 0
rounds_reg = 14

key0_reg = 00010203, key1_reg  = 04050607, key2_reg = 08090a0b, key3_reg  = 0c0d0e0f
key4_reg = 10111213, key5_reg  = 14151617, key6_reg = 18191a1b, key7_reg  = 1c1d1e1f

iv0_reg = 00000009, iv1_reg = 0000004a,iv2_reg = 00000000

data_in0_reg  = 948c9ae3, data_in1_reg   = c281d8e1, data_in2_reg  = 5e252834, data_in3_reg   = 3b16618f
data_in4_reg  = 15e9ec38, data_in5_reg   = 14a786b7, data_in6_reg  = 7d9d498d, data_in7_reg   = 44ad46a1
data_in8_reg  = fa6551e2, data_in9_reg   = 699205b8, data_in10_reg = ef62ecc4, data_in11_reg  = 4b27eae5
data_in12_reg = 5bda75f7, data_in13_reg  = c306aa0e, data_in14_reg = 1f14ba02, data_in15_reg  = 82ed57c5

ready = 0x1, data_out_valid = 1
data_out00 = d30ed0e5, data_out01 = 0d70c70c, data_out02 = 30b20a50, data_out03 = a409c0a5
data_out04 = 0980c213, data_out05 = 21ba1bc0, data_out06 = b302903e, data_out07 = 07d0a70a
data_out08 = 90ad0aa0, data_out09 = b00b00b6, data_out10 = 0b50be0b, data_out11 = e0c60c70
data_out12 = ce0d80d7, data_out13 = 0e50e70f, data_out14 = 00f00f80, data_out15 = f70f90f9

Final Output:
0xd30ed0e50d70c70c30b20a50a409c0a50980c21321ba1bc0b302903e07d0a70a90ad0aa0b00b00b60b50be0be0c60c70ce0d80d70e50e70f00f00f80f70f90f9

***----------***
Count = 6
***----------***
*** Started.
*** Ready seen.

Top internal state
------------------
init_reg   = 0
next_reg   = 0
rounds_reg = 14

key0_reg = 00010203, key1_reg  = 04050607, key2_reg = 08090a0b, key3_reg  = 0c0d0e0f
key4_reg = 10111213, key5_reg  = 14151617, key6_reg = 18191a1b, key7_reg  = 1c1d1e1f

iv0_reg = 00000009, iv1_reg = 0000004a,iv2_reg = 00000000

data_in0_reg  = 48b2a608, data_in1_reg   = af2b131d, data_in2_reg  = a39ba2a1, data_in3_reg   = 933f6926
data_in4_reg  = 5cae221b, data_in5_reg   = f711cdb1, data_in6_reg  = c28f19b8, data_in7_reg   = a3c2edab
data_in8_reg  = d3c3ebf7, data_in9_reg   = d2e9b205, data_in10_reg = 8486598f, data_in11_reg  = 13ead626
data_in12_reg = 9e97462b, data_in13_reg  = 9de24661, data_in14_reg = dee8154d, data_in15_reg  = 78822932

ready = 0x1, data_out_valid = 1
data_out00 = 0f30ec0e, data_out01 = 60da0cf0, data_out02 = cd0c80c5, data_out03 = 0c20c80c
data_out04 = 40c70c30, data_out05 = c20c50c6, data_out06 = 0c10c00b, data_out07 = e0bf0c00
data_out08 = b90bb0b5, data_out09 = 0b70b70b, data_out10 = 60b40b40, data_out11 = b80b30b3
data_out12 = 0b40b30b, data_out13 = 50b40b60, data_out14 = c10ca0cf, data_out15 = 0d60ee0e

Final Output:
0xf30ec0e60da0cf0cd0c80c50c20c80c40c70c30c20c50c60c10c00be0bf0c00b90bb0b50b70b70b60b40b40b80b30b30b40b30b50b40b60c10ca0cf0d60ee0e

***----------***
Count = 7
***----------***
*** Started.
*** Ready seen.

Top internal state
------------------
init_reg   = 0
next_reg   = 0
rounds_reg = 14

key0_reg = 00010203, key1_reg  = 04050607, key2_reg = 08090a0b, key3_reg  = 0c0d0e0f
key4_reg = 10111213, key5_reg  = 14151617, key6_reg = 18191a1b, key7_reg  = 1c1d1e1f

iv0_reg = 00000009, iv1_reg = 0000004a,iv2_reg = 00000000

data_in0_reg  = 57534616, data_in1_reg   = 73fb8f73, data_in2_reg  = 6727826d, data_in3_reg   = 4f8cac4b
data_in4_reg  = 69761f6e, data_in5_reg   = 321db872, data_in6_reg  = ce15d3e3, data_in7_reg   = e7779106
data_in8_reg  = 6018ea49, data_in9_reg   = e92e0ece, data_in10_reg = 263e1204, data_in11_reg  = a6c13098
data_in12_reg = 453efa20, data_in13_reg  = 3c593df6, data_in14_reg = 1034498d, data_in15_reg  = 0511c99c

ready = 0x1, data_out_valid = 1
data_out00 = 10d10c10, data_out01 = bc0a909e, data_out02 = 09b0a009, data_out03 = d0930d61
data_out04 = 751f3145, data_out05 = 07002505, data_out06 = 008a0a50, data_out07 = a40a70ad
data_out08 = 0ad0b10b, data_out09 = 30b70bc0, data_out10 = c20c40cb, data_out11 = 0d20d60d
data_out12 = d0e90f00, data_out13 = f10f70f7, data_out14 = 0fd0fc0f, data_out15 = 70f30ea0

Final Output:
0x10d10c10bc0a909e09b0a009d0930d61751f314507002505008a0a50a40a70ad0ad0b10b30b70bc0c20c40cb0d20d60dd0e90f00f10f70f70fd0fc0f70f30ea0

***----------***
Count = 8
***----------***
*** Started.
*** Ready seen.

Top internal state
------------------
init_reg   = 0
next_reg   = 0
rounds_reg = 14

key0_reg = 00010203, key1_reg  = 04050607, key2_reg = 08090a0b, key3_reg  = 0c0d0e0f
key4_reg = 10111213, key5_reg  = 14151617, key6_reg = 18191a1b, key7_reg  = 1c1d1e1f

iv0_reg = 00000009, iv1_reg = 0000004a,iv2_reg = 00000000

data_in0_reg  = a68feacb, data_in1_reg   = c3a1dde1, data_in2_reg  = 7e572e64, data_in3_reg   = 5e13a1ee
data_in4_reg  = 1069ee27, data_in5_reg   = 15a296c7, data_in6_reg  = 72941905, data_in7_reg   = 48fd54a0
data_in8_reg  = 1a7b5022, data_in9_reg   = 6d9235bf, data_in10_reg = ef72e3c4, data_in11_reg  = 8b4cedc5
data_in12_reg = 3adcc597, data_in13_reg  = c106810d, data_in14_reg = ff07bb02, data_in15_reg  = a8ee2782

ready = 0x1, data_out_valid = 1
data_out00 = e10da0cd, data_out01 = 0c50c20c, data_out02 = 10c00c00, data_out03 = c10c00c4
data_out04 = 0c00c00c, data_out05 = 20bf0bb0, data_out06 = bc0bc0b6, data_out07 = 0b80b50b
data_out08 = 70b30b60, data_out09 = b40b30b1, data_out10 = 0b40b10b, data_out11 = 20ad0b50
data_out12 = af0b30b7, data_out13 = 0c50cc0c, data_out14 = e0e30e80, data_out15 = dd0ce0be

Final Output:
0xe10da0cd0c50c20c10c00c00c10c00c40c00c00c20bf0bb0bc0bc0b60b80b50b70b30b60b40b30b10b40b10b20ad0b50af0b30b70c50cc0ce0e30e80dd0ce0be

***----------***
Count = 9
***----------***
*** Started.
*** Ready seen.

Top internal state
------------------
init_reg   = 0
next_reg   = 0
rounds_reg = 14

key0_reg = 00010203, key1_reg  = 04050607, key2_reg = 08090a0b, key3_reg  = 0c0d0e0f
key4_reg = 10111213, key5_reg  = 14151617, key6_reg = 18191a1b, key7_reg  = 1c1d1e1f

iv0_reg = 00000009, iv1_reg = 0000004a,iv2_reg = 00000000

data_in0_reg  = 4c62ec0f, data_in1_reg   = 3f6c15bd, data_in2_reg  = f09ef28f, data_in3_reg   = 853dbd3a
data_in4_reg  = ac242d9b, data_in5_reg   = 5917cdd0, data_in6_reg  = c42f70b8, data_in7_reg   = 53cdea9b
data_in8_reg  = d9c32bfe, data_in9_reg   = d5c9c202, data_in10_reg = 24e05f4f, data_in11_reg  = 76ef2664
data_in12_reg = 9a57022f, data_in13_reg  = 2da85d01, data_in14_reg = e3ebd569, data_in15_reg  = 7bd21d31

ready = 0x1, data_out_valid = 1
data_out00 = 0be0a609, data_out01 = f09d0a50, data_out02 = 9e09d0eb, data_out03 = 1a221c10
data_out04 = b04d03b0, data_out05 = 6c0a50a7, data_out06 = 0ab0a90b, data_out07 = 10b00b30
data_out08 = b30b70bc, data_out09 = 0c50c70c, data_out10 = c0d20d80, data_out11 = dd0ec0f1
data_out12 = 0f80f70f, data_out13 = e0fe1000, data_out14 = fc0f60eb, data_out15 = 0e30da0d

Final Output:
0xbe0a609f09d0a509e09d0eb1a221c10b04d03b06c0a50a70ab0a90b10b00b30b30b70bc0c50c70cc0d20d80dd0ec0f10f80f70fe0fe1000fc0f60eb0e30da0d

***----------***
Count = a
***----------***
*** Started.
*** Ready seen.

Top internal state
------------------
init_reg   = 0
next_reg   = 0
rounds_reg = 14

key0_reg = 00010203, key1_reg  = 04050607, key2_reg = 08090a0b, key3_reg  = 0c0d0e0f
key4_reg = 10111213, key5_reg  = 14151617, key6_reg = 18191a1b, key7_reg  = 1c1d1e1f

iv0_reg = 00000009, iv1_reg = 0000004a,iv2_reg = 00000000

data_in0_reg  = 574a4676, data_in1_reg   = 0cfd2f2e, data_in2_reg  = 62d7ea68, data_in3_reg   = efd8ad5a
data_in4_reg  = db654ee8, data_in5_reg   = 395d5d7b, data_in6_reg  = ce5fd253, data_in7_reg   = ff760110
data_in8_reg  = 6108e149, data_in9_reg   = 192f0e8e, data_in10_reg = 5139227b, data_in11_reg  = a081539e
data_in12_reg = e563feb0, data_in13_reg  = 785dcdb8, data_in14_reg = 13647b8e, data_in15_reg  = 8501c96c

ready = 0x1, data_out_valid = 1
data_out00 = 10c80c70, data_out01 = c30c30c3, data_out02 = 0c40c80c, data_out03 = 70c70c70
data_out04 = c70c60c3, data_out05 = 0c40c00c, data_out06 = 00c00be0, data_out07 = bc0be0bb
data_out08 = 0bc0ba0b, data_out09 = c0b60b80, data_out10 = b50b70b4, data_out11 = 0b60b50b
data_out12 = 70b40b90, data_out13 = b50b80b9, data_out14 = 0c80ce0c, data_out15 = f0e30e50

Final Output:
0x10c80c70c30c30c30c40c80c70c70c70c70c60c30c40c00c00c00be0bc0be0bb0bc0ba0bc0b60b80b50b70b40b60b50b70b40b90b50b80b90c80ce0cf0e30e50

***----------***
Count = b
***----------***
*** Started.
*** Ready seen.

Top internal state
------------------
init_reg   = 0
next_reg   = 0
rounds_reg = 14

key0_reg = 00010203, key1_reg  = 04050607, key2_reg = 08090a0b, key3_reg  = 0c0d0e0f
key4_reg = 10111213, key5_reg  = 14151617, key6_reg = 18191a1b, key7_reg  = 1c1d1e1f

iv0_reg = 00000009, iv1_reg = 0000004a,iv2_reg = 00000000

data_in0_reg  = 918efab9, data_in1_reg   = c421bce7, data_in2_reg  = 4e0b2824, data_in3_reg   = 011591de
data_in4_reg  = 068b0e25, data_in5_reg   = 45219937, data_in6_reg  = b995791b, data_in7_reg   = 49ad4aa0
data_in8_reg  = 6a675022, data_in9_reg   = 6f92d5ce, data_in10_reg = e8629ac3, data_in11_reg  = 4b33eb25
data_in12_reg = 4bd965ce, data_in13_reg  = c236b40e, data_in14_reg = af1fba52, data_in15_reg  = 8eeda7d1

ready = 0x1, data_out_valid = 1
data_out00 = d60cb0bf, data_out01 = 0bd0a30a, data_out02 = 209c0a40, data_out03 = 9e0a30f4
data_out04 = 1ae2200e, data_out05 = 703c0440, data_out06 = 770aa0a8, data_out07 = 0ad0ab0b
data_out08 = 00af0b60, data_out09 = b60bd0c0, data_out10 = 0c50c80c, data_out11 = e0d20db0
data_out12 = de0e90ee, data_out13 = 0f60f90f, data_out14 = b0fb0fd0, data_out15 = fb0f60ed

Final Output:
0xd60cb0bf0bd0a30a209c0a409e0a30f41ae2200e703c0440770aa0a80ad0ab0b00af0b60b60bd0c00c50c80ce0d20db0de0e90ee0f60f90fb0fb0fd0fb0f60ed

***----------***
Count = c
***----------***
*** Started.
*** Ready seen.

Top internal state
------------------
init_reg   = 0
next_reg   = 0
rounds_reg = 14

key0_reg = 00010203, key1_reg  = 04050607, key2_reg = 08090a0b, key3_reg  = 0c0d0e0f
key4_reg = 10111213, key5_reg  = 14151617, key6_reg = 18191a1b, key7_reg  = 1c1d1e1f

iv0_reg = 00000009, iv1_reg = 0000004a,iv2_reg = 00000000

data_in0_reg  = 49d2960b, data_in1_reg   = 8f3c133d, data_in2_reg  = a49b82ae, data_in3_reg   = 93af6b26
data_in4_reg  = cca522eb, data_in5_reg   = f9112dbf, data_in6_reg  = c21f1fbf, data_in7_reg   = 13b9ed8b
data_in8_reg  = abc44bfd, data_in9_reg   = d599ba05, data_in10_reg = 148f593f, data_in11_reg  = 16ea1629
data_in12_reg = 9e37492b, data_in13_reg  = 1dee46b1, data_in14_reg = a9ef2534, data_in15_reg  = 7e427e37

ready = 0x1, data_out_valid = 1
data_out00 = 0e50dc0d, data_out01 = 40cd0cd0, data_out02 = ca0ca0ca, data_out03 = 0cb0ca0c
data_out04 = d0cc0cc0, data_out05 = cc0cb0c8, data_out06 = 0c80c60c, data_out07 = 50c40c20
data_out08 = c10c10bf, data_out09 = 0c00bf0b, data_out10 = f0bd0bf0, data_out11 = bd0bf0bc
data_out12 = 0be0bc0b, data_out13 = d0b80bb0, data_out14 = b60b90b6, data_out15 = 0ba0b90b

Final Output:
0xe50dc0d40cd0cd0ca0ca0ca0cb0ca0cd0cc0cc0cc0cb0c80c80c60c50c40c20c10c10bf0c00bf0bf0bd0bf0bd0bf0bc0be0bc0bd0b80bb0b60b90b60ba0b90b

***----------***
Count = d
***----------***
*** Started.
*** Ready seen.

Top internal state
------------------
init_reg   = 0
next_reg   = 0
rounds_reg = 14

key0_reg = 00010203, key1_reg  = 04050607, key2_reg = 08090a0b, key3_reg  = 0c0d0e0f
key4_reg = 10111213, key5_reg  = 14151617, key6_reg = 18191a1b, key7_reg  = 1c1d1e1f

iv0_reg = 00000009, iv1_reg = 0000004a,iv2_reg = 00000000

data_in0_reg  = f73a41b6, data_in1_reg   = 0dfdcf3d, data_in2_reg  = 63c7ce6a, data_in3_reg   = cfccad9a
data_in4_reg  = dd62ee8e, data_in5_reg   = 3f7d3c7d, data_in6_reg  = 9e03d2a2, data_in7_reg   = 4c61e3ac
data_in8_reg  = 61d87e47, data_in9_reg   = a9150fee, data_in10_reg = 4c38b262, data_in11_reg  = a0c1569e
data_in12_reg = f560fef0, data_in13_reg  = 0d5a3dc9, data_in14_reg = 12e4678f, data_in15_reg  = c503c99c

ready = 0x1, data_out_valid = 1
data_out00 = b0b80bb0, data_out01 = c20cd0d0, data_out02 = 0d50ec0e, data_out03 = 50d30cb0
data_out04 = c10bc0a5, data_out05 = 0a60a10a, data_out06 = 509c0b11, data_out07 = 0f1c0207
data_out08 = 0b102505, data_out09 = 708c0ae0, data_out10 = a80ae0ad, data_out11 = 0b20b00b
data_out12 = 60b70bd0, data_out13 = c00c70c8, data_out14 = 0d00d20d, data_out15 = b0e10ea0

Final Output:
0xb0b80bb0c20cd0d00d50ec0e50d30cb0c10bc0a50a60a10a509c0b110f1c02070b102505708c0ae0a80ae0ad0b20b00b60b70bd0c00c70c80d00d20db0e10ea0

***----------***
Count = e
***----------***
*** Started.
*** Ready seen.

Top internal state
------------------
init_reg   = 0
next_reg   = 0
rounds_reg = 14

key0_reg = 00010203, key1_reg  = 04050607, key2_reg = 08090a0b, key3_reg  = 0c0d0e0f
key4_reg = 10111213, key5_reg  = 14151617, key6_reg = 18191a1b, key7_reg  = 1c1d1e1f

iv0_reg = 00000009, iv1_reg = 0000004a,iv2_reg = 00000000

data_in0_reg  = a98d0af0, data_in1_reg   = c061e5e2, data_in2_reg  = ae6f2d24, data_in3_reg   = 741191f3
data_in4_reg  = 1159e227, data_in5_reg   = 85d791d7, data_in6_reg  = 0693597b, data_in7_reg   = 4fdd28a7
data_in8_reg  = aa0257c2, data_in9_reg   = 1f9555ca, data_in10_reg = e87291c3, data_in11_reg  = bb23ed65
data_in12_reg = 2bdc159d, data_in13_reg  = c6e6f60a, data_in14_reg = df5fbe22, data_in15_reg  = c9e90781

ready = 0x1, data_out_valid = 1
data_out00 = ee0f40f6, data_out01 = 0f90fa0f, data_out02 = c0f80f40, data_out03 = eb0e30d9
data_out04 = 0d30cc0c, data_out05 = b0ca0ca0, data_out06 = c80c80c8, data_out07 = 0ca0c90c
data_out08 = c0ca0c80, data_out09 = c60c50c4, data_out10 = 0c40c30c, data_out11 = 10c20bf0
data_out12 = be0be0bd, data_out13 = 0bb0bb0b, data_out14 = c0bb0ba0, data_out15 = bc0bc0bd

Final Output:
0xee0f40f60f90fa0fc0f80f40eb0e30d90d30cc0cb0ca0ca0c80c80c80ca0c90cc0ca0c80c60c50c40c40c30c10c20bf0be0be0bd0bb0bb0bc0bb0ba0bc0bc0bd

***----------***
Count = f
***----------***
*** Started.
*** Ready seen.

Top internal state
------------------
init_reg   = 0
next_reg   = 0
rounds_reg = 14

key0_reg = 00010203, key1_reg  = 04050607, key2_reg = 08090a0b, key3_reg  = 0c0d0e0f
key4_reg = 10111213, key5_reg  = 14151617, key6_reg = 18191a1b, key7_reg  = 1c1d1e1f

iv0_reg = 00000009, iv1_reg = 0000004a,iv2_reg = 00000000

data_in0_reg  = 4c42f10d, data_in1_reg   = 4f4a146d, data_in2_reg  = d59cb2de, data_in3_reg   = 946f1b21
data_in4_reg  = 6cd0255b, data_in5_reg   = 89166dbb, data_in6_reg  = c39f0abd, data_in7_reg   = 839aeceb
data_in8_reg  = a6c46bff, data_in9_reg   = d3d9ad04, data_in10_reg = 849558df, data_in11_reg  = 1ff10732
data_in12_reg = 8ae73523, data_in13_reg  = ad1a4af1, data_in14_reg = b1ee152f, data_in15_reg  = 7f427736

ready = 0x1, data_out_valid = 1
data_out00 = 0bc0bb0b, data_out01 = 80bb0b80, data_out02 = bb0b90ba, data_out03 = 0b70ba0b
data_out04 = 70b90b70, data_out05 = bc0bf0cc, data_out06 = 0d00d30e, data_out07 = c0e70d40
data_out08 = cc0c30bd, data_out09 = 0a40a80a, data_out10 = 60a70a10, data_out11 = b410e1a7
data_out12 = 1f30c003, data_out13 = 604c07f0, data_out14 = ae0aa0ad, data_out15 = 0aa0b00a

Final Output:
0xbc0bb0b80bb0b80bb0b90ba0b70ba0b70b90b70bc0bf0cc0d00d30ec0e70d40cc0c30bd0a40a80a60a70a10b410e1a71f30c003604c07f0ae0aa0ad0aa0b00a

***----------***
Count = 10
***----------***
*** Started.
*** Ready seen.

Top internal state
------------------
init_reg   = 0
next_reg   = 0
rounds_reg = 14

key0_reg = 00010203, key1_reg  = 04050607, key2_reg = 08090a0b, key3_reg  = 0c0d0e0f
key4_reg = 10111213, key5_reg  = 14151617, key6_reg = 18191a1b, key7_reg  = 1c1d1e1f

iv0_reg = 00000009, iv1_reg = 0000004a,iv2_reg = 00000000

data_in0_reg  = a7314166, data_in1_reg   = 72fadf2c, data_in2_reg  = 62c7ee69, data_in3_reg   = 8fcaac9a
data_in4_reg  = f967eed8, data_in5_reg   = 3a1d6878, data_in6_reg  = be66d6c3, data_in7_reg   = b6735149
data_in8_reg  = 6768894e, data_in9_reg   = 2952099e, data_in10_reg = 2c3e2207, data_in11_reg  = a7612e99
data_in12_reg = 1510f950, data_in13_reg  = 095a0dc1, data_in14_reg = 14040989, data_in15_reg  = b55ecc9c

ready = 0x1, data_out_valid = 1
data_out00 = e0b30b60, data_out01 = bd0bc0c1, data_out02 = 0c50cc0d, data_out03 = 10d50db0
data_out04 = e50ec0f3, data_out05 = 0f00f50f, data_out06 = 70f90f70, data_out07 = f50eb0e2
data_out08 = 0da0d20c, data_out09 = f0cb0c90, data_out10 = c80c70c8, data_out11 = 0c80c80c
data_out12 = 80c70c70, data_out13 = c40c40c0, data_out14 = 0be0bc0b, data_out15 = c0bc0ba0

Final Output:
0xe0b30b60bd0bc0c10c50cc0d10d50db0e50ec0f30f00f50f70f90f70f50eb0e20da0d20cf0cb0c90c80c70c80c80c80c80c70c70c40c40c00be0bc0bc0bc0ba0

***----------***
Count = 11
***----------***
*** Started.
*** Ready seen.

Top internal state
------------------
init_reg   = 0
next_reg   = 0
rounds_reg = 14

key0_reg = 00010203, key1_reg  = 04050607, key2_reg = 08090a0b, key3_reg  = 0c0d0e0f
key4_reg = 10111213, key5_reg  = 14151617, key6_reg = 18191a1b, key7_reg  = 1c1d1e1f

iv0_reg = 00000009, iv1_reg = 0000004a,iv2_reg = 00000000

data_in0_reg  = fc89dabc, data_in1_reg   = c441a6e6, data_in2_reg  = fe2e2904, data_in3_reg   = 2614d192
data_in4_reg  = 17099720, data_in5_reg   = 55a59617, data_in6_reg  = 76949904, data_in7_reg   = 483d58a0
data_in8_reg  = 1a7e50d2, data_in9_reg   = 1c95d5dd, data_in10_reg = ea42bac2, data_in11_reg  = 1b2aea85
data_in12_reg = 2bdda586, data_in13_reg  = c776e80b, data_in14_reg = 1f57a533, data_in15_reg  = d6fc27e9

ready = 0x1, data_out_valid = 1
data_out00 = bb0b90ba, data_out01 = 0bb0b90b, data_out02 = 90b90b60, data_out03 = b90b70b8
