CHACHA20_Code/CHACHA20_Code.sim/sim_1/behav/xsim/simulate.log
Vivado Simulator 2018.3
Time resolution is 1 ps
   -- Testbench for chacha started --
State at init after reset:

Top internal state
------------------
init_reg   = 0
next_reg   = 0
rounds_reg = 0

key0_reg = 00000000, key1_reg  = 00000000, key2_reg = 00000000, key3_reg  = 00000000
key4_reg = 00000000, key5_reg  = 00000000, key6_reg = 00000000, key7_reg  = 00000000

iv0_reg = 00000000, iv1_reg = 00000000,iv2_reg = 00000000

data_in0_reg  = 00000000, data_in1_reg   = 00000000, data_in2_reg  = 00000000, data_in3_reg   = 00000000
data_in4_reg  = 00000000, data_in5_reg   = 00000000, data_in6_reg  = 00000000, data_in7_reg   = 00000000
data_in8_reg  = 00000000, data_in9_reg   = 00000000, data_in10_reg = 00000000, data_in11_reg  = 00000000
data_in12_reg = 00000000, data_in13_reg  = 00000000, data_in14_reg = 00000000, data_in15_reg  = 00000000

ready = 0x1, data_out_valid = 0
data_out00 = 00000000, data_out01 = 00000000, data_out02 = 00000000, data_out03 = 00000000
data_out04 = 00000000, data_out05 = 00000000, data_out06 = 00000000, data_out07 = 00000000
data_out08 = 00000000, data_out09 = 00000000, data_out10 = 00000000, data_out11 = 00000000
data_out12 = 00000000, data_out13 = 00000000, data_out14 = 00000000, data_out15 = 00000000

 
TC1-: Given key 256 bits and Nonce. 96 bits, 20 rounds.
***----------***
Count = 0
***----------***
*** Started.
*** Ready seen.

Top internal state
------------------
init_reg   = 0
next_reg   = 0
rounds_reg = 14

key0_reg = 00010203, key1_reg  = 04050607, key2_reg = 08090a0b, key3_reg  = 0c0d0e0f
key4_reg = 10111213, key5_reg  = 14151617, key6_reg = 18191a1b, key7_reg  = 1c1d1e1f

iv0_reg = 00000009, iv1_reg = 0000004a,iv2_reg = 00000000

data_in0_reg  = 00000000, data_in1_reg   = 00000000, data_in2_reg  = 00000000, data_in3_reg   = 00000000
data_in4_reg  = 00000000, data_in5_reg   = 00000000, data_in6_reg  = 0bc0bb0b, data_in7_reg   = c0b90bb0
data_in8_reg  = ba0ba0b6, data_in9_reg   = 0b80b50b, data_in10_reg = 80b50b80, data_in11_reg  = b50b70b6
data_in12_reg = 0b60b40b, data_in13_reg  = 70b30b60, data_in14_reg = bf0c90cb, data_in15_reg  = 0d10e70e

ready = 0x1, data_out_valid = 1
data_out00 = 6e972264, data_out01 = 6e972264, data_out02 = 6e972264, data_out03 = 6e972264
data_out04 = 6e972264, data_out05 = 6e972264, data_out06 = 6557996f, data_out07 = ae2e29d4
data_out08 = d49c82d2, data_out09 = 6517976f, data_out10 = ee2229e4, data_out11 = db9c52d2
data_out12 = 65f7966f, data_out13 = 1e242904, data_out14 = d19bb2af, data_out15 = 6387c56a

Final Output:
0x6e9722646e9722646e9722646e9722646e9722646e9722646557996fae2e29d4d49c82d26517976fee2229e4db9c52d265f7966f1e242904d19bb2af6387c56a

***----------***
Count = 1
***----------***
*** Started.
*** Ready seen.

Top internal state
------------------
init_reg   = 0
next_reg   = 0
rounds_reg = 14

key0_reg = 00010203, key1_reg  = 04050607, key2_reg = 08090a0b, key3_reg  = 0c0d0e0f
key4_reg = 10111213, key5_reg  = 14151617, key6_reg = 18191a1b, key7_reg  = 1c1d1e1f

iv0_reg = 00000009, iv1_reg = 0000004a,iv2_reg = 00000000

data_in0_reg  = 40d10c90, data_in1_reg   = c00b70a0, data_in2_reg  = 0a10a00a, data_in3_reg   = 00980ae1
data_in4_reg  = 0c1af1ee, data_in5_reg   = 0a902305, data_in6_reg  = 20820a90, data_in7_reg   = a60ac0a9
data_in8_reg  = 0b10af0b, data_in9_reg   = 60b50bb0, data_in10_reg = bd0c50c7, data_in11_reg  = 0cf0d10d
data_in12_reg = a0de0e60, data_in13_reg  = ec0f10f5, data_in14_reg = 0f60f40f, data_in15_reg  = 70f60f00

ready = 0x1, data_out_valid = 1
data_out00 = 2e462ef4, data_out01 = ae9c52c4, data_out02 = 6487826e, data_out03 = 6e0f2885
data_out04 = 628dd38a, data_out05 = 64070161, data_out06 = 4e1528f4, data_out07 = c89de2cd
data_out08 = 65878d6f, data_out09 = 0e2229d4, data_out10 = d39b72a3, data_out11 = 6267f369
data_out12 = ce492c04, data_out13 = 82983291, data_out14 = 61f7d66b, data_out15 = 1e612d64

Final Output:
0x2e462ef4ae9c52c46487826e6e0f2885628dd38a640701614e1528f4c89de2cd65878d6f0e2229d4d39b72a36267f369ce492c048298329161f7d66b1e612d64

***----------***
Count = 2
***----------***
*** Started.
*** Ready seen.

Top internal state
------------------
init_reg   = 0
next_reg   = 0
rounds_reg = 14

key0_reg = 00010203, key1_reg  = 04050607, key2_reg = 08090a0b, key3_reg  = 0c0d0e0f
key4_reg = 10111213, key5_reg  = 14151617, key6_reg = 18191a1b, key7_reg  = 1c1d1e1f

iv0_reg = 00000009, iv1_reg = 0000004a,iv2_reg = 00000000

data_in0_reg  = ea0e00d7, data_in1_reg   = 0d00cc0c, data_in2_reg  = 90c70c70, data_in3_reg   = c60c50c6
data_in4_reg  = 0c80c70c, data_in5_reg   = 40c40c50, data_in6_reg  = c30c10bf, data_in7_reg   = 0bf0bc0b
data_in8_reg  = b0ba0bd0, data_in9_reg   = bc0b80b9, data_in10_reg = 0b60bb0b, data_in11_reg  = 90b80b80
data_in12_reg = b70b60b9, data_in13_reg  = 0b70b50b, data_in14_reg = 30b60b50, data_in15_reg  = ba0bf0c9

ready = 0x1, data_out_valid = 1
data_out00 = 849922b3, data_out01 = 6397ee68, data_out02 = fe502e14, data_out03 = a89b72a2
data_out04 = 6217e568, data_out05 = 2e532e34, data_out06 = ad9b32db, data_out07 = 65679e6f
data_out08 = de2d29b4, data_out09 = d29ca2dd, data_out10 = 65f7996f, data_out11 = fe2f29e4
data_out12 = d99c42dd, data_out13 = 65e7976f, data_out14 = 5e212934, data_out15 = d49cd2ad

Final Output:
0x849922b36397ee68fe502e14a89b72a26217e5682e532e34ad9b32db65679e6fde2d29b4d29ca2dd65f7996ffe2f29e4d99c42dd65e7976f5e212934d49cd2ad

***----------***
Count = 3
***----------***
*** Started.
*** Ready seen.

Top internal state
------------------
init_reg   = 0
next_reg   = 0
rounds_reg = 14

key0_reg = 00010203, key1_reg  = 04050607, key2_reg = 08090a0b, key3_reg  = 0c0d0e0f
key4_reg = 10111213, key5_reg  = 14151617, key6_reg = 18191a1b, key7_reg  = 1c1d1e1f

iv0_reg = 00000009, iv1_reg = 0000004a,iv2_reg = 00000000

data_in0_reg  = 0ce0d60e, data_in1_reg   = f0e50d20, data_in2_reg  = c50c30b1, data_in3_reg   = 0a40a20a
data_in4_reg  = 30a309d0, data_in5_reg   = ca13b1b5, data_in6_reg  = 1880a803, data_in7_reg   = 40480820
data_in8_reg  = a50ab0aa, data_in9_reg   = 0ab0b30b, data_in10_reg = 00b60b70, data_in11_reg  = ba0c00c4
data_in12_reg = 0c90cc0d, data_in13_reg  = 10d80df0, data_in14_reg = e40e90f2, data_in15_reg  = 0ee0f40f

ready = 0x1, data_out_valid = 1
data_out00 = 6277f46a, data_out01 = 9e722f44, data_out02 = ab9b12d5, data_out03 = 64d7806e
data_out04 = 5e342bb4, data_out05 = a48493d1, data_out06 = 76178a67, data_out07 = 2edf2a44
data_out08 = cb9d92ce, data_out09 = 6427916f, data_out10 = 6e212914, data_out11 = d49b22a0
data_out12 = 6207ee69, data_out13 = 7e4f2f94, data_out14 = 8a99b296, data_out15 = 6077d66b

Final Output:
0x6277f46a9e722f44ab9b12d564d7806e5e342bb4a48493d176178a672edf2a44cb9d92ce6427916f6e212914d49b22a06207ee697e4f2f948a99b2966077d66b

***----------***
Count = 4
***----------***
*** Started.
*** Ready seen.

Top internal state
------------------
init_reg   = 0
next_reg   = 0
rounds_reg = 14

key0_reg = 00010203, key1_reg  = 04050607, key2_reg = 08090a0b, key3_reg  = 0c0d0e0f
key4_reg = 10111213, key5_reg  = 14151617, key6_reg = 18191a1b, key7_reg  = 1c1d1e1f

iv0_reg = 00000009, iv1_reg = 0000004a,iv2_reg = 00000000

data_in0_reg  = 20f30f30, data_in1_reg   = e80e30dc, data_in2_reg  = 0d20cf0c, data_in3_reg   = 70c90c70
data_in4_reg  = c50c40c6, data_in5_reg   = 0c80c40c, data_in6_reg  = 70c00c10, data_in7_reg   = be0c00bd
data_in8_reg  = 0b90be0b, data_in9_reg   = 90b60b80, data_in10_reg = b60b80b9, data_in11_reg  = 0b70b70b
data_in12_reg = 50b50b30, data_in13_reg  = b80b10b4, data_in14_reg = 0b50b40b, data_in15_reg  = 90c70ca0

ready = 0x1, data_out_valid = 1
data_out00 = 4e642d54, data_out01 = 869912b8, data_out02 = 63b7ed68, data_out03 = 1e5e2e14
data_out04 = ab9b62a2, data_out05 = 6217e668, data_out06 = 1e572e74, data_out07 = d09b22d9
data_out08 = 65079c6f, data_out09 = fe2129e4, data_out10 = d89ca2dd, data_out11 = 65e7956f
data_out12 = 3e222954, data_out13 = d69c32d0, data_out14 = 65c7966f, data_out15 = fe502ec4

Final Output:
0x4e642d54869912b863b7ed681e5e2e14ab9b62a26217e6681e572e74d09b22d965079c6ffe2129e4d89ca2dd65e7956f3e222954d69c32d065c7966ffe502ec4

***----------***
Count = 5
***----------***
*** Started.
*** Ready seen.

Top internal state
------------------
init_reg   = 0
next_reg   = 0
rounds_reg = 14

key0_reg = 00010203, key1_reg  = 04050607, key2_reg = 08090a0b, key3_reg  = 0c0d0e0f
key4_reg = 10111213, key5_reg  = 14151617, key6_reg = 18191a1b, key7_reg  = 1c1d1e1f

iv0_reg = 00000009, iv1_reg = 0000004a,iv2_reg = 00000000

data_in0_reg  = d30ed0e5, data_in1_reg   = 0d70c70c, data_in2_reg  = 30b20a50, data_in3_reg   = a409c0a5
data_in4_reg  = 0980c213, data_in5_reg   = 21ba1bc0, data_in6_reg  = b302903e, data_in7_reg   = 07d0a70a
data_in8_reg  = 90ad0aa0, data_in9_reg   = b00b00b6, data_in10_reg = 0b50be0b, data_in11_reg  = e0c60c70
data_in12_reg = ce0d80d7, data_in13_reg  = 0e50e70f, data_in14_reg = 00f00f80, data_in15_reg  = f70f90f9

ready = 0x1, data_out_valid = 1
data_out00 = bd99f281, data_out01 = 63e7e568, data_out02 = 5e252834, data_out03 = ca9ee2c1
data_out04 = 6717e077, data_out05 = 4f2d39a4, data_out06 = dd95b25a, data_out07 = 6947856e
data_out08 = fe3a28c4, data_out09 = de9c22d2, data_out10 = 65c79c6f, data_out11 = 8e512e14
data_out12 = a09aa2b3, data_out13 = 60c7c56b, data_out14 = 6e672de4, data_out15 = 9998b29d

Final Output:
0xbd99f28163e7e5685e252834ca9ee2c16717e0774f2d39a4dd95b25a6947856efe3a28c4de9c22d265c79c6f8e512e14a09aa2b360c7c56b6e672de49998b29d

***----------***
Count = 6
***----------***
*** Started.
*** Ready seen.

Top internal state
------------------
init_reg   = 0
next_reg   = 0
rounds_reg = 14

key0_reg = 00010203, key1_reg  = 04050607, key2_reg = 08090a0b, key3_reg  = 0c0d0e0f
key4_reg = 10111213, key5_reg  = 14151617, key6_reg = 18191a1b, key7_reg  = 1c1d1e1f

iv0_reg = 00000009, iv1_reg = 0000004a,iv2_reg = 00000000

data_in0_reg  = 0f30ec0e, data_in1_reg   = 60da0cf0, data_in2_reg  = cd0c80c5, data_in3_reg   = 0c20c80c
data_in4_reg  = 40c70c30, data_in5_reg   = c20c50c6, data_in6_reg  = 0c10c00b, data_in7_reg   = e0bf0c00
data_in8_reg  = b90bb0b5, data_in9_reg   = 0b70b70b, data_in10_reg = 60b40b40, data_in11_reg  = b80b30b3
data_in12_reg = 0b40b30b, data_in13_reg  = 50b40b60, data_in14_reg = c10ca0cf, data_in15_reg  = 0d60ee0e

ready = 0x1, data_out_valid = 1
data_out00 = 61a7ce6a, data_out01 = 0e4d2e94, data_out02 = a39ba2a1, data_out03 = 62b7ea68
data_out04 = 2e502e54, data_out05 = ac9b72a2, data_out06 = 6287e26f, data_out07 = 8e282e64
data_out08 = d79c92d1, data_out09 = 65e7956f, data_out10 = 0e232924, data_out11 = d69c12d7
data_out12 = 65d7916f, data_out13 = 3e232904, data_out14 = af9b82ab, data_out15 = 63f7cc6a

Final Output:
0x61a7ce6a0e4d2e94a39ba2a162b7ea682e502e54ac9b72a26287e26f8e282e64d79c92d165e7956f0e232924d69c12d765d7916f3e232904af9b82ab63f7cc6a

***----------***
Count = 7
***----------***
*** Started.
*** Ready seen.

Top internal state
------------------
init_reg   = 0
next_reg   = 0
rounds_reg = 14

key0_reg = 00010203, key1_reg  = 04050607, key2_reg = 08090a0b, key3_reg  = 0c0d0e0f
key4_reg = 10111213, key5_reg  = 14151617, key6_reg = 18191a1b, key7_reg  = 1c1d1e1f

iv0_reg = 00000009, iv1_reg = 0000004a,iv2_reg = 00000000

data_in0_reg  = 10d10c10, data_in1_reg   = bc0a909e, data_in2_reg  = 09b0a009, data_in3_reg   = d0930d61
data_in4_reg  = 751f3145, data_in5_reg   = 07002505, data_in6_reg  = 008a0a50, data_in7_reg   = a40a70ad
data_in8_reg  = 0ad0b10b, data_in9_reg   = 30b70bc0, data_in10_reg = c20c40cb, data_in11_reg  = 0d20d60d
data_in12_reg = d0e90f00, data_in13_reg  = f10f70f7, data_in14_reg = 0fd0fc0f, data_in15_reg  = 70f30ea0

ready = 0x1, data_out_valid = 1
data_out00 = 7e462e74, data_out01 = d29db2fa, data_out02 = 6727826d, data_out03 = be042f05
data_out04 = 1b881321, data_out05 = 69970761, data_out06 = 6e1d2834, data_out07 = ca9d52c9
data_out08 = 6447936f, data_out09 = 5e2029a4, data_out10 = ac9b62af, data_out11 = 63b7f469
data_out12 = be7e2d64, data_out13 = 9f985293, data_out14 = 6147de6b, data_out15 = 1e642cc4

Final Output:
0x7e462e74d29db2fa6727826dbe042f051b881321699707616e1d2834ca9d52c96447936f5e2029a4ac9b62af63b7f469be7e2d649f9852936147de6b1e642cc4

***----------***
Count = 8
***----------***
*** Started.
*** Ready seen.

Top internal state
------------------
init_reg   = 0
next_reg   = 0
rounds_reg = 14

key0_reg = 00010203, key1_reg  = 04050607, key2_reg = 08090a0b, key3_reg  = 0c0d0e0f
key4_reg = 10111213, key5_reg  = 14151617, key6_reg = 18191a1b, key7_reg  = 1c1d1e1f

iv0_reg = 00000009, iv1_reg = 0000004a,iv2_reg = 00000000

data_in0_reg  = e10da0cd, data_in1_reg   = 0c50c20c, data_in2_reg  = 10c00c00, data_in3_reg   = c10c00c4
data_in4_reg  = 0c00c00c, data_in5_reg   = 20bf0bb0, data_in6_reg  = bc0bc0b6, data_in7_reg   = 0b80b50b
data_in8_reg  = 70b30b60, data_in9_reg   = b40b30b1, data_in10_reg = 0b40b10b, data_in11_reg  = 20ad0b50
data_in12_reg = af0b30b7, data_in13_reg  = 0c50cc0c, data_in14_reg = e0e30e80, data_in15_reg  = dd0ce0be

ready = 0x1, data_out_valid = 1
data_out00 = 8f9a82a9, data_out01 = 62c7e068, data_out02 = 7e572e64, data_out03 = af9b22a0
data_out04 = 6297e268, data_out05 = 4e2829d4, data_out06 = d29ce2d2, data_out07 = 6517976f
data_out08 = 1e242904, data_out09 = da9c12d5, data_out10 = 65d7936f, data_out11 = 4e3a2934
data_out12 = c19c12d3, data_out13 = 62c7ee68, data_out14 = 8e742ce4, data_out15 = b39bc2da

Final Output:
0x8f9a82a962c7e0687e572e64af9b22a06297e2684e2829d4d29ce2d26517976f1e242904da9c12d565d7936f4e3a2934c19c12d362c7ee688e742ce4b39bc2da

***----------***
Count = 9
***----------***
*** Started.
*** Ready seen.

Top internal state
------------------
init_reg   = 0
next_reg   = 0
rounds_reg = 14

key0_reg = 00010203, key1_reg  = 04050607, key2_reg = 08090a0b, key3_reg  = 0c0d0e0f
key4_reg = 10111213, key5_reg  = 14151617, key6_reg = 18191a1b, key7_reg  = 1c1d1e1f

iv0_reg = 00000009, iv1_reg = 0000004a,iv2_reg = 00000000

data_in0_reg  = 0be0a609, data_in1_reg   = f09d0a50, data_in2_reg  = 9e09d0eb, data_in3_reg   = 1a221c10
data_in4_reg  = b04d03b0, data_in5_reg   = 6c0a50a7, data_in6_reg  = 0ab0a90b, data_in7_reg   = 10b00b30
data_in8_reg  = b30b70bc, data_in9_reg   = 0c50c70c, data_in10_reg = c0d20d80, data_in11_reg  = dd0ec0f1
data_in12_reg = 0f80f70f, data_in13_reg  = e0fe1000, data_in14_reg = fc0f60eb, data_in15_reg  = 0e30da0d

ready = 0x1, data_out_valid = 1
data_out00 = 6577846d, data_out01 = 9e0a2834, data_out02 = f09ef28f, data_out03 = 74b53e74
data_out04 = deda21d4, data_out05 = 029d72c3, data_out06 = 64278b6f, data_out07 = 7e272954
data_out08 = dd9c52d8, data_out09 = 62c7e568, data_out10 = ae452fe4, data_out11 = b399e295
data_out12 = 6117d56b, data_out13 = 8e693264, data_out14 = 9298428f, data_out15 = 60a7f869

Final Output:
0x6577846d9e0a2834f09ef28f74b53e74deda21d4029d72c364278b6f7e272954dd9c52d862c7e568ae452fe4b399e2956117d56b8e6932649298428f60a7f869

***----------***
Count = a
***----------***
*** Started.
*** Ready seen.

Top internal state
------------------
init_reg   = 0
next_reg   = 0
rounds_reg = 14

key0_reg = 00010203, key1_reg  = 04050607, key2_reg = 08090a0b, key3_reg  = 0c0d0e0f
key4_reg = 10111213, key5_reg  = 14151617, key6_reg = 18191a1b, key7_reg  = 1c1d1e1f

iv0_reg = 00000009, iv1_reg = 0000004a,iv2_reg = 00000000

data_in0_reg  = 10c80c70, data_in1_reg   = c30c30c3, data_in2_reg  = 0c40c80c, data_in3_reg   = 70c70c70
data_in4_reg  = c70c60c3, data_in5_reg   = 0c40c00c, data_in6_reg  = 00c00be0, data_in7_reg   = bc0be0bb
data_in8_reg  = 0bc0ba0b, data_in9_reg   = c0b60b80, data_in10_reg = b50b70b4, data_in11_reg  = 0b60b50b
data_in12_reg = 70b40b90, data_in13_reg  = b50b80b9, data_in14_reg = 0c80ce0c, data_in15_reg  = f0e30e50

ready = 0x1, data_out_valid = 1
data_out00 = 7e5f2e14, data_out01 = ad9b12a7, data_out02 = 62d7ea68, data_out03 = 1e502e14
data_out04 = a99b42a7, data_out05 = 62d7e268, data_out06 = 6e572984, data_out07 = d29cc2df
data_out08 = 6557986f, data_out09 = ae2129e4, data_out10 = db9c52d0, data_out11 = 65f7976f
data_out12 = 1e2329f4, data_out13 = db9ca2dd, data_out14 = 6217ec68, data_out15 = 9e742c34

Final Output:
0x7e5f2e14ad9b12a762d7ea681e502e14a99b42a762d7e2686e572984d29cc2df6557986fae2129e4db9c52d065f7976f1e2329f4db9ca2dd6217ec689e742c34

***----------***
Count = b
***----------***
*** Started.
*** Ready seen.

Top internal state
------------------
init_reg   = 0
next_reg   = 0
rounds_reg = 14

key0_reg = 00010203, key1_reg  = 04050607, key2_reg = 08090a0b, key3_reg  = 0c0d0e0f
key4_reg = 10111213, key5_reg  = 14151617, key6_reg = 18191a1b, key7_reg  = 1c1d1e1f

iv0_reg = 00000009, iv1_reg = 0000004a,iv2_reg = 00000000

data_in0_reg  = d60cb0bf, data_in1_reg   = 0bd0a30a, data_in2_reg  = 209c0a40, data_in3_reg   = 9e0a30f4
data_in4_reg  = 1ae2200e, data_in5_reg   = 703c0440, data_in6_reg  = 770aa0a8, data_in7_reg   = 0ad0ab0b
data_in8_reg  = 00af0b60, data_in9_reg   = b60bd0c0, data_in10_reg = 0c50c80c, data_in11_reg  = e0d20db0
data_in12_reg = de0e90ee, data_in13_reg  = 0f60f90f, data_in14_reg = b0fb0fd0, data_in15_reg  = fb0f60ed

ready = 0x1, data_out_valid = 1
data_out00 = b89b92db, data_out01 = 6547816e, data_out02 = 4e0b2824, data_out03 = f09d1290
data_out04 = 7475026a, data_out05 = 1eab2624, data_out06 = 199d82cc, data_out07 = 6447896f
data_out08 = 6e382904, data_out09 = d89cf2a4, data_out10 = 62c7ea68, data_out11 = 8e452fd4
data_out12 = b099b28a, data_out13 = 61f7db6b, data_out14 = de6c2db4, data_out15 = 95984289

Final Output:
0xb89b92db6547816e4e0b2824f09d12907475026a1eab2624199d82cc6447896f6e382904d89cf2a462c7ea688e452fd4b099b28a61f7db6bde6c2db495984289

***----------***
Count = c
***----------***
*** Started.
*** Ready seen.

Top internal state
------------------
init_reg   = 0
next_reg   = 0
rounds_reg = 14

key0_reg = 00010203, key1_reg  = 04050607, key2_reg = 08090a0b, key3_reg  = 0c0d0e0f
key4_reg = 10111213, key5_reg  = 14151617, key6_reg = 18191a1b, key7_reg  = 1c1d1e1f

iv0_reg = 00000009, iv1_reg = 0000004a,iv2_reg = 00000000

data_in0_reg  = 0e50dc0d, data_in1_reg   = 40cd0cd0, data_in2_reg  = ca0ca0ca, data_in3_reg   = 0cb0ca0c
data_in4_reg  = d0cc0cc0, data_in5_reg   = cc0cb0c8, data_in6_reg  = 0c80c60c, data_in7_reg   = 50c40c20
data_in8_reg  = c10c10bf, data_in9_reg   = 0c00bf0b, data_in10_reg = f0bd0bf0, data_in11_reg  = bd0bf0bc
data_in12_reg = 0be0bc0b, data_in13_reg  = d0b80bb0, data_in14_reg = b60b90b6, data_in15_reg  = 0ba0b90b

ready = 0x1, data_out_valid = 1
data_out00 = 60c7fe69, data_out01 = 2e5a2eb4, data_out02 = a49b82ae, data_out03 = 6227e868
data_out04 = be5b2ea4, data_out05 = a29b92ac, data_out06 = 6217e468, data_out07 = 3e532e44
data_out08 = af9b32db, data_out09 = 62979d6f, data_out10 = 9e2a2994, data_out11 = d39cd2d8
data_out12 = 65779e6f, data_out13 = be2f29d4, data_out14 = d89cb2d2, data_out15 = 65379b6f

Final Output:
0x60c7fe692e5a2eb4a49b82ae6227e868be5b2ea4a29b92ac6217e4683e532e44af9b32db62979d6f9e2a2994d39cd2d865779e6fbe2f29d4d89cb2d265379b6f

***----------***
Count = d
***----------***
*** Started.
*** Ready seen.

Top internal state
------------------
init_reg   = 0
next_reg   = 0
rounds_reg = 14

key0_reg = 00010203, key1_reg  = 04050607, key2_reg = 08090a0b, key3_reg  = 0c0d0e0f
key4_reg = 10111213, key5_reg  = 14151617, key6_reg = 18191a1b, key7_reg  = 1c1d1e1f

iv0_reg = 00000009, iv1_reg = 0000004a,iv2_reg = 00000000

data_in0_reg  = b0b80bb0, data_in1_reg   = c20cd0d0, data_in2_reg  = 0d50ec0e, data_in3_reg   = 50d30cb0
data_in4_reg  = c10bc0a5, data_in5_reg   = 0a60a10a, data_in6_reg  = 509c0b11, data_in7_reg   = 0f1c0207
data_in8_reg  = 0b102505, data_in9_reg   = 708c0ae0, data_in10_reg = a80ae0ad, data_in11_reg  = 0b20b00b
data_in12_reg = 60b70bd0, data_in13_reg  = c00c70c8, data_in14_reg = 0d00d20d, data_in15_reg  = b0e10ea0

ready = 0x1, data_out_valid = 1
data_out00 = de2f29d4, data_out01 = ac9bf2b4, data_out02 = 63c7ce6a, data_out03 = 3e442ed4
data_out04 = af9ce2c1, data_out05 = 64f7836e, data_out06 = 3e0b2975, data_out07 = 618b2063
data_out08 = 65870761, data_out09 = 1e1b2884, data_out10 = c69dc2c9, data_out11 = 65b7926f
data_out12 = 0e2029b4, data_out13 = ae9b52ac, data_out14 = 6397f069, data_out15 = de762cc4

Final Output:
0xde2f29d4ac9bf2b463c7ce6a3e442ed4af9ce2c164f7836e3e0b2975618b2063658707611e1b2884c69dc2c965b7926f0e2029b4ae9b52ac6397f069de762cc4

***----------***
Count = e
***----------***
*** Started.
*** Ready seen.

Top internal state
------------------
init_reg   = 0
next_reg   = 0
rounds_reg = 14

key0_reg = 00010203, key1_reg  = 04050607, key2_reg = 08090a0b, key3_reg  = 0c0d0e0f
key4_reg = 10111213, key5_reg  = 14151617, key6_reg = 18191a1b, key7_reg  = 1c1d1e1f

iv0_reg = 00000009, iv1_reg = 0000004a,iv2_reg = 00000000

data_in0_reg  = ee0f40f6, data_in1_reg   = 0f90fa0f, data_in2_reg  = c0f80f40, data_in3_reg   = eb0e30d9
data_in4_reg  = 0d30cc0c, data_in5_reg   = b0ca0ca0, data_in6_reg  = c80c80c8, data_in7_reg   = 0ca0c90c
data_in8_reg  = c0ca0c80, data_in9_reg   = c60c50c4, data_in10_reg = 0c40c30c, data_in11_reg  = 10c20bf0
data_in12_reg = be0be0bd, data_in13_reg  = 0bb0bb0b, data_in14_reg = c0bb0ba0, data_in15_reg  = bc0bc0bd

ready = 0x1, data_out_valid = 1
data_out00 = 80986292, data_out01 = 6107d86b, data_out02 = ae6f2d24, data_out03 = 859912bd
data_out04 = 63a7ee68, data_out05 = de5d2ec4, data_out06 = a69ba2ac, data_out07 = 6237eb68
data_out08 = ae5d2ee4, data_out09 = a89b72a0, data_out10 = 62d7e168, data_out11 = 7e552994
data_out12 = d09cc2d9, data_out13 = 6527996f, data_out14 = ae2c29c4, data_out15 = d29ce2d9

Final Output:
0x809862926107d86bae6f2d24859912bd63a7ee68de5d2ec4a69ba2ac6237eb68ae5d2ee4a89b72a062d7e1687e552994d09cc2d96527996fae2c29c4d29ce2d9

***----------***
Count = f
***----------***
*** Started.
*** Ready seen.

Top internal state
------------------
init_reg   = 0
next_reg   = 0
rounds_reg = 14

key0_reg = 00010203, key1_reg  = 04050607, key2_reg = 08090a0b, key3_reg  = 0c0d0e0f
key4_reg = 10111213, key5_reg  = 14151617, key6_reg = 18191a1b, key7_reg  = 1c1d1e1f

iv0_reg = 00000009, iv1_reg = 0000004a,iv2_reg = 00000000

data_in0_reg  = 0bc0bb0b, data_in1_reg   = 80bb0b80, data_in2_reg  = bb0b90ba, data_in3_reg   = 0b70ba0b
data_in4_reg  = 70b90b70, data_in5_reg   = bc0bf0cc, data_in6_reg  = 0d00d30e, data_in7_reg   = c0e70d40
data_in8_reg  = cc0c30bd, data_in9_reg   = 0a40a80a, data_in10_reg = 60a70a10, data_in11_reg  = b410e1a7
data_in12_reg = 1f30c003, data_in13_reg  = 604c07f0, data_in14_reg = ae0aa0ad, data_in15_reg  = 0aa0b00a

ready = 0x1, data_out_valid = 1
data_out00 = 6557996f, data_out01 = ee2c29e4, data_out02 = d59cb2de, data_out03 = 65e7986f
data_out04 = 1e2e2914, data_out05 = d29cd2a8, data_out06 = 6397f16a, data_out07 = ae702f24
data_out08 = a29b12d9, data_out09 = 64d78a6e, data_out10 = 0e302874, data_out11 = da87c3c3
data_out12 = 71a7e267, data_out13 = 0edb2594, data_out14 = c09d82c9, data_out15 = 6437926e

Final Output:
0x6557996fee2c29e4d59cb2de65e7986f1e2e2914d29cd2a86397f16aae702f24a29b12d964d78a6e0e302874da87c3c371a7e2670edb2594c09d82c96437926e

***----------***
Count = 10
***----------***
*** Started.
*** Ready seen.

Top internal state
------------------
init_reg   = 0
next_reg   = 0
rounds_reg = 14

key0_reg = 00010203, key1_reg  = 04050607, key2_reg = 08090a0b, key3_reg  = 0c0d0e0f
key4_reg = 10111213, key5_reg  = 14151617, key6_reg = 18191a1b, key7_reg  = 1c1d1e1f

iv0_reg = 00000009, iv1_reg = 0000004a,iv2_reg = 00000000

data_in0_reg  = e0b30b60, data_in1_reg   = bd0bc0c1, data_in2_reg  = 0c50cc0d, data_in3_reg   = 10d50db0
data_in4_reg  = e50ec0f3, data_in5_reg   = 0f00f50f, data_in6_reg  = 70f90f70, data_in7_reg   = f50eb0e2
data_in8_reg  = 0da0d20c, data_in9_reg   = f0cb0c90, data_in10_reg = c80c70c8, data_in11_reg  = 0c80c80c
data_in12_reg = 80c70c70, data_in13_reg  = c40c40c0, data_in14_reg = 0be0bc0b, data_in15_reg  = c0bc0ba0

ready = 0x1, data_out_valid = 1
data_out00 = 8e242904, data_out01 = d39ce2a5, data_out02 = 62c7ee69, data_out03 = 7e422fd4
data_out04 = 8b99e297, data_out05 = 6197d76b, data_out06 = 1e6e2d14, data_out07 = 9b999286
data_out08 = 6337f068, data_out09 = 9e5c2ef4, data_out10 = a69b52ac, data_out11 = 6217ea68
data_out12 = ee502e14, data_out13 = aa9b62a4, data_out14 = 65779e6f, data_out15 = ae2b29c4

Final Output:
0x8e242904d39ce2a562c7ee697e422fd48b99e2976197d76b1e6e2d149b9992866337f0689e5c2ef4a69b52ac6217ea68ee502e14aa9b62a465779e6fae2b29c4

***----------***
Count = 11
***----------***
*** Started.
*** Ready seen.

Top internal state
------------------
init_reg   = 0
next_reg   = 0
rounds_reg = 14

key0_reg = 00010203, key1_reg  = 04050607, key2_reg = 08090a0b, key3_reg  = 0c0d0e0f
key4_reg = 10111213, key5_reg  = 14151617, key6_reg = 18191a1b, key7_reg  = 1c1d1e1f

iv0_reg = 00000009, iv1_reg = 0000004a,iv2_reg = 00000000

data_in0_reg  = bb0b90ba, data_in1_reg   = 0bb0b90b, data_in2_reg  = 90b90b60, data_in3_reg   = b90b70b8
data_in4_reg  = 0b60b90b, data_in5_reg   = 60b80b60, data_in6_reg  = b80b40b7, data_in7_reg   = 0b40b90b
data_in8_reg  = 70b60b90, data_in9_reg   = c50cd0d3, data_in10_reg = 0e70e80d, data_in11_reg  = b0cb0c10
data_in12_reg = be0a50a6, data_in13_reg  = 0a20a50a, data_in14_reg = 00b310b1, data_in15_reg  = a31ee0d5

ready = 0x1, data_out_valid = 1
data_out00 = d59cb2de, data_out01 = 65279b6f, data_out02 = fe2e2904, data_out03 = d79c52dc
data_out04 = 65f79b6f, data_out05 = 0e2f2904, data_out06 = d69c62d3, data_out07 = 65d79b6f
data_out08 = 1e2129f4, data_out09 = ab9bf2b7, data_out10 = 60e7ca69, data_out11 = de5c2e74
data_out12 = d09d72c2, data_out13 = 64b7876e, data_out14 = 6e2432d5, data_out15 = cd89c2b1

Final Output:
